{
    "count": 5,
    "next": "https://zentral.example.com/api/santa/rules/?page=2",
    "previous": null,
    "results": [
        {
            "id": 1,
            "target_type": "BINARY",
            "target_identifier": "hash1",
            "policy": "BLOCKLIST",
            "custom_msg": "Test rule 1",
            "description": "First test rule",
            "configuration": 1,
            "created_at": "2025-01-01T10:00:00Z",
            "updated_at": "2025-01-01T10:00:00Z"
        },
        {
            "id": 2,
            "target_type": "CERTIFICATE",
            "target_identifier": "cert1",
            "policy": "ALLOWLIST",
            "custom_msg": "Test rule 2",
            "description": "Second test rule",
            "configuration": 1,
            "created_at": "2025-01-01T11:00:00Z",
            "updated_at": "2025-01-01T11:00:00Z"
        }
    ]
}